0	0	0
0	50	0
0	100	0
0	150	0
0	200	0
0	250	0
0	300	0
0	350	0
0	400	0
0	450	0
0	500	0
0	550	0
0	600	0
0	650	0
0	700	0
0	750	0
0	800	0
0	850	0
0	900	0
0	950	0
0	1000	0
0	1050	0
0	1100	0
0	1150	0
0	1200	0
0	1250	0
0	1300	0
0	1350	0
0	1400	0
0	1450	0
0	1500	0
0	1550	0
50	0	0
50	50	0
50	100	0
50	150	0
50	200	0
50	250	0
50	300	0
50	350	0
50	400	0
50	450	0
50	500	0
50	550	0
50	600	0
50	650	0
50	700	0
50	750	0
50	800	0
50	850	0
50	900	0
50	950	0
50	1000	0
50	1050	0
50	1100	0
50	1150	0
50	1200	0
50	1250	0
50	1300	0
50	1350	0
50	1400	0
50	1450	0
50	1500	0
50	1550	0
100	0	1
100	50	1
100	100	1
100	150	1
100	200	1
100	250	1
100	300	1
100	350	1
100	400	1
100	450	1
100	500	1
100	550	1
100	600	1
100	650	1
100	700	1
100	750	1
100	800	1
100	850	1
100	900	1
100	950	1
100	1000	1
100	1050	1
100	1100	1
100	1150	1
100	1200	1
100	1250	1
100	1300	1
100	1350	1
100	1400	1
100	1450	1
100	1500	1
100	1550	1
150	0	1
150	50	1
150	100	1
150	150	1
150	200	1
150	250	1
150	300	1
150	350	1
150	400	1
150	450	1
150	500	1
150	550	1
150	600	1
150	650	1
150	700	1
150	750	1
150	800	1
150	850	1
150	900	1
150	950	1
150	1000	1
150	1050	1
150	1100	1
150	1150	1
150	1200	1
150	1250	1
150	1300	1
150	1350	1
150	1400	1
150	1450	1
150	1500	1
150	1550	1
200	0	2
200	50	2
200	100	2
200	150	2
200	200	2
200	250	2
200	300	2
200	350	2
200	400	2
200	450	2
200	500	2
200	550	2
200	600	2
200	650	2
200	700	2
200	750	2
200	800	2
200	850	2
200	900	2
200	950	2
200	1000	2
200	1050	2
200	1100	2
200	1150	2
200	1200	2
200	1250	2
200	1300	2
200	1350	2
200	1400	2
200	1450	2
200	1500	2
200	1550	2
250	0	2
250	50	2
250	100	2
250	150	2
250	200	2
250	250	2
250	300	2
250	350	2
250	400	2
250	450	2
250	500	2
250	550	2
250	600	2
250	650	2
250	700	2
250	750	2
250	800	2
250	850	2
250	900	2
250	950	2
250	1000	2
250	1050	2
250	1100	2
250	1150	2
250	1200	2
250	1250	2
250	1300	2
250	1350	2
250	1400	2
250	1450	2
250	1500	2
250	1550	2
300	0	3
300	50	3
300	100	3
300	150	3
300	200	3
300	250	3
300	300	3
300	350	3
300	400	3
300	450	3
300	500	3
300	550	3
300	600	3
300	650	3
300	700	3
300	750	3
300	800	3
300	850	3
300	900	3
300	950	3
300	1000	3
300	1050	3
300	1100	3
300	1150	3
300	1200	3
300	1250	3
300	1300	3
300	1350	3
300	1400	3
300	1450	3
300	1500	3
300	1550	3
350	0	3
350	50	3
350	100	3
350	150	3
350	200	3
350	250	3
350	300	3
350	350	3
350	400	3
350	450	3
350	500	3
350	550	3
350	600	3
350	650	3
350	700	3
350	750	3
350	800	3
350	850	3
350	900	3
350	950	3
350	1000	3
350	1050	3
350	1100	3
350	1150	3
350	1200	3
350	1250	3
350	1300	3
350	1350	3
350	1400	3
350	1450	3
350	1500	3
350	1550	3
400	0	4
400	50	4
400	100	4
400	150	4
400	200	4
400	250	4
400	300	4
400	350	4
400	400	4
400	450	4
400	500	4
400	550	4
400	600	4
400	650	4
400	700	4
400	750	4
400	800	4
400	850	4
400	900	4
400	950	4
400	1000	4
400	1050	4
400	1100	4
400	1150	4
400	1200	4
400	1250	4
400	1300	4
400	1350	4
400	1400	4
400	1450	4
400	1500	4
400	1550	4
450	0	4
450	50	4
450	100	4
450	150	4
450	200	4
450	250	4
450	300	4
450	350	4
450	400	4
450	450	4
450	500	4
450	550	4
450	600	4
450	650	4
450	700	4
450	750	4
450	800	4
450	850	4
450	900	4
450	950	4
450	1000	4
450	1050	4
450	1100	4
450	1150	4
450	1200	4
450	1250	4
450	1300	4
450	1350	4
450	1400	4
450	1450	4
450	1500	4
450	1550	4
500	0	5
500	50	5
500	100	5
500	150	5
500	200	5
500	250	5
500	300	5
500	350	5
500	400	5
500	450	5
500	500	5
500	550	5
500	600	5
500	650	5
500	700	5
500	750	5
500	800	5
500	850	5
500	900	5
500	950	5
500	1000	5
500	1050	5
500	1100	5
500	1150	5
500	1200	5
500	1250	5
500	1300	5
500	1350	5
500	1400	5
500	1450	5
500	1500	5
500	1550	5
550	0	5
550	50	5
550	100	5
550	150	5
550	200	5
550	250	5
550	300	5
550	350	5
550	400	5
550	450	5
550	500	5
550	550	5
550	600	5
550	650	5
550	700	5
550	750	5
550	800	5
550	850	5
550	900	5
550	950	5
550	1000	5
550	1050	5
550	1100	5
550	1150	5
550	1200	5
550	1250	5
550	1300	5
550	1350	5
550	1400	5
550	1450	5
550	1500	5
550	1550	5
600	0	6
600	50	6
600	100	6
600	150	6
600	200	6
600	250	6
600	300	6
600	350	6
600	400	6
600	450	6
600	500	6
600	550	6
600	600	6
600	650	6
600	700	6
600	750	6
600	800	6
600	850	6
600	900	6
600	950	6
600	1000	6
600	1050	6
600	1100	6
600	1150	6
600	1200	6
600	1250	6
600	1300	6
600	1350	6
600	1400	6
600	1450	6
600	1500	6
600	1550	6
650	0	6
650	50	6
650	100	6
650	150	6
650	200	6
650	250	6
650	300	6
650	350	6
650	400	6
650	450	6
650	500	6
650	550	6
650	600	6
650	650	6
650	700	6
650	750	6
650	800	6
650	850	6
650	900	6
650	950	6
650	1000	6
650	1050	6
650	1100	6
650	1150	6
650	1200	6
650	1250	6
650	1300	6
650	1350	6
650	1400	6
650	1450	6
650	1500	6
650	1550	6
700	0	7
700	50	7
700	100	7
700	150	7
700	200	7
700	250	7
700	300	7
700	350	7
700	400	7
700	450	7
700	500	7
700	550	7
700	600	7
700	650	7
700	700	7
700	750	7
700	800	7
700	850	7
700	900	7
700	950	7
700	1000	7
700	1050	7
700	1100	7
700	1150	7
700	1200	7
700	1250	7
700	1300	7
700	1350	7
700	1400	7
700	1450	7
700	1500	7
700	1550	7
750	0	7
750	50	7
750	100	7
750	150	7
750	200	7
750	250	7
750	300	7
750	350	7
750	400	7
750	450	7
750	500	7
750	550	7
750	600	7
750	650	7
750	700	7
750	750	7
750	800	7
750	850	7
750	900	7
750	950	7
750	1000	7
750	1050	7
750	1100	7
750	1150	7
750	1200	7
750	1250	7
750	1300	7
750	1350	7
750	1400	7
750	1450	7
750	1500	7
750	1550	7